# Alias OBJ Model File
# Exported from SketchUp, (c) 2000-2012 Trimble Navigation Limited
# File units = meters

mtllib cilindroMOd.mtl

g Mesh1 Model

usemtl FrontColor
v 0 0 3.3
vt 0 -129.921
vn 0 1 -0
v 0 0 2.895
vt 0 -113.976
v -0.0947217 0 2.89345
vt -3.7292 -113.915
v -0.189342 0 2.8888
vt -7.45441 -113.732
v -0.28376 0 2.88106
vt -11.1716 -113.428
v -0.377873 0 2.87023
vt -14.8769 -113.001
v -0.471582 0 2.85633
vt -18.5662 -112.454
v -0.564786 0 2.83937
vt -22.2357 -111.786
v -0.657386 0 2.81937
vt -25.8813 -110.999
v -0.749281 0 2.79636
vt -29.4993 -110.093
v -0.840374 0 2.77034
vt -33.0856 -109.069
v -0.930567 0 2.74136
vt -36.6365 -107.928
v -1.01976 0 2.70945
vt -40.1482 -106.671
v -1.10787 0 2.67463
vt -43.6169 -105.3
v -1.26286 0 3.0488
vt -49.7187 -120.032
v -1.16243 0 3.08849
vt -45.7648 -121.594
v -1.06075 0 3.12487
vt -41.7618 -123.026
v -0.957939 0 3.1579
vt -37.7142 -124.327
v -0.854103 0 3.18756
vt -33.6261 -125.494
v -0.749352 0 3.21379
vt -29.502 -126.527
v -0.643798 0 3.23659
vt -25.3464 -127.425
v -0.537555 0 3.25592
vt -21.1636 -128.186
v -0.430736 0 3.27177
vt -16.9581 -128.81
v -0.323457 0 3.28411
vt -12.7345 -129.296
v -0.21583 0 3.29293
vt -8.49726 -129.643
v -0.107973 0 3.29823
vt -4.2509 -129.852
f 1/1/1 2/2/1 3/3/1 4/4/1 5/5/1 6/6/1 7/7/1 8/8/1 9/9/1 10/10/1 11/11/1 12/12/1 13/13/1 14/14/1 15/15/1 16/16/1 17/17/1 18/18/1 19/19/1 20/20/1 21/21/1 22/22/1 23/23/1 24/24/1 25/25/1 26/26/1 

vt -113.976 0
vn 1 0 -0
vt -129.921 0
v 0 -0.05 3.3
vt -129.921 -1.9685
v 0 -0.05 2.895
vt -113.976 -1.9685
f 2/27/2 1/28/2 27/29/2 28/30/2 

vt 2.12574 0
vn -0.0163617 0 0.999866
vt -2.12574 0
vn -0.0327191 0 0.999465
v -0.107973 -0.05 3.29823
vt -2.12574 -1.9685
vt 2.12574 -1.9685
f 1/31/3 26/32/4 29/33/4 27/34/3 

vn -0.0654031 0 0.997859
v -0.21583 -0.05 3.29293
f 26/31/4 25/32/5 30/33/5 29/34/4 

vn -0.0980171 0 0.995185
v -0.323457 -0.05 3.28411
f 25/31/5 24/32/6 31/33/6 30/34/5 

vn -0.130526 0 0.991445
v -0.430736 -0.05 3.27177
f 24/31/6 23/32/7 32/33/7 31/34/6 

vn -0.162895 0 0.986643
v -0.537555 -0.05 3.25592
f 23/31/7 22/32/8 33/33/8 32/34/7 

vn -0.19509 0 0.980785
v -0.643798 -0.05 3.23659
f 22/31/8 21/32/9 34/33/9 33/34/8 

vn -0.227076 0 0.973877
v -0.749352 -0.05 3.21379
f 21/31/9 20/32/10 35/33/10 34/34/9 

vn -0.258819 0 0.965926
v -0.854103 -0.05 3.18756
f 20/31/10 19/32/11 36/33/11 35/34/10 

vn -0.290285 0 0.95694
v -0.957939 -0.05 3.1579
f 19/31/11 18/32/12 37/33/12 36/34/11 

vn -0.321439 0 0.94693
v -1.06075 -0.05 3.12487
f 18/31/12 17/32/13 38/33/13 37/34/12 

vn -0.35225 0 0.935906
v -1.16243 -0.05 3.08849
f 17/31/13 16/32/14 39/33/14 38/34/13 

vn -0.367516 0 0.930017
v -1.26286 -0.05 3.0488
f 16/31/14 15/32/15 40/33/15 39/34/14 

vt 129.921 0
vn -0.92388 0 -0.382683
vt 113.976 0
v -1.10787 -0.05 2.67463
vt 113.976 -1.9685
vt 129.921 -1.9685
f 15/35/16 14/36/16 41/37/16 40/38/16 

vt 1.86485 0
vn 0.367516 0 -0.930017
vt -1.86485 0
vn 0.35225 0 -0.935906
v -1.01976 -0.05 2.70945
vt -1.86485 -1.9685
vt 1.86485 -1.9685
f 14/39/17 13/40/18 42/41/18 41/42/17 

vn 0.321439 0 -0.94693
v -0.930567 -0.05 2.74136
f 13/39/18 12/40/19 43/41/19 42/42/18 

vn 0.290285 0 -0.95694
v -0.840374 -0.05 2.77034
f 12/39/19 11/40/20 44/41/20 43/42/19 

vn 0.258819 0 -0.965926
v -0.749281 -0.05 2.79636
f 11/39/20 10/40/21 45/41/21 44/42/20 

vn 0.227076 0 -0.973877
v -0.657386 -0.05 2.81937
f 10/39/21 9/40/22 46/41/22 45/42/21 

vn 0.19509 0 -0.980785
v -0.564786 -0.05 2.83937
f 9/39/22 8/40/23 47/41/23 46/42/22 

vn 0.162895 0 -0.986643
v -0.471582 -0.05 2.85633
f 8/39/23 7/40/24 48/41/24 47/42/23 

vn 0.130526 0 -0.991445
v -0.377873 -0.05 2.87023
f 7/39/24 6/40/25 49/41/25 48/42/24 

vn 0.0980171 0 -0.995185
v -0.28376 -0.05 2.88106
f 6/39/25 5/40/26 50/41/26 49/42/25 

vn 0.0654031 0 -0.997859
v -0.189342 -0.05 2.8888
f 5/39/26 4/40/27 51/41/27 50/42/26 

vn 0.0327191 0 -0.999465
v -0.0947217 -0.05 2.89345
f 4/39/27 3/40/28 52/41/28 51/42/27 

vn 0.0163617 0 -0.999866
f 3/39/28 2/40/29 28/41/29 52/42/28 

vn 0 -1 -0
vt 4.2509 -129.852
vt 8.49726 -129.643
vt 12.7345 -129.296
vt 16.9581 -128.81
vt 21.1636 -128.186
vt 25.3464 -127.425
vt 29.502 -126.527
vt 33.6261 -125.494
vt 37.7142 -124.327
vt 41.7618 -123.026
vt 45.7648 -121.594
vt 49.7187 -120.032
vt 43.6169 -105.3
vt 40.1482 -106.671
vt 36.6365 -107.928
vt 33.0856 -109.069
vt 29.4993 -110.093
vt 25.8813 -110.999
vt 22.2357 -111.786
vt 18.5662 -112.454
vt 14.8769 -113.001
vt 11.1716 -113.428
vt 7.45441 -113.732
vt 3.7292 -113.915
f 28/2/30 27/1/30 29/43/30 30/44/30 31/45/30 32/46/30 33/47/30 34/48/30 35/49/30 36/50/30 37/51/30 38/52/30 39/53/30 40/54/30 41/55/30 42/56/30 43/57/30 44/58/30 45/59/30 46/60/30 47/61/30 48/62/30 49/63/30 50/64/30 51/65/30 52/66/30 

